<svg version="1.2" xmlns="http://www.w3.org/2000/svg" viewBox="0 0 963 700" width="963" height="700">
	<title>—Pngtree—simple gradient e-commerce web page_935351</title>
	<style>
		.s0 { opacity: 1;fill: #f4bda5 } 
		.s1 { fill: #5aaff6 } 
	</style>
	<g id="Background">
		<path id="Path 0" class="s0" d="m1575 0h99v700h-262.8c-252.7 0.1-262.6 0-260.5-1.7 1.8-1.5 2.5-3.8 3.8-13.8 0.8-6.6 1.8-13.2 2.5-17.5h-46.5l0.8 5.7c0.4 3.2 1.3 9.8 1.9 14.8 0.8 6.2 1.7 9.5 3 10.8 1.7 1.6-1.9 1.7-153.2 1.7l-0.2-81.3c-0.1-44.6-0.2-83.6-0.2-86.4-0.1-4.8-0.3-5.3-2.3-5.3-1.3 0-2.1-0.5-1.8-1 0.3-0.5 1.4-1 2.5-1q2 0 2-2c0-1.5-0.7-2-5.5-2.2l5-1.4 0.5-104.4 3.3-0.9c1.7-0.5 8.8-1.4 15.7-2.1 6.9-0.6 14.5-1.8 17-2.6 2.7-0.9 8.7-1.4 15-1.4 5.8 0 12.3-0.5 14.5-1.1 2.2-0.5 4.9-1.2 6-1.4 1.1-0.2 5.2-0.9 9-1.6 3.8-0.6 8.7-1.2 10.7-1.3 3.5-0.1 3.6-0.2 2-2.1-0.9-1.1-2-2.2-2.3-2.5-0.3-0.3-1.4-2-2.3-3.7-1.2-2.5-1.3-3.4-0.3-3.7 0.6-0.2-0.8-0.8-3.3-1.5-2.5-0.6-6.5-2.1-8.9-3.4-2.4-1.2-5.8-4-7.4-6.2-1.9-2.4-3.3-5.6-3.5-8-0.3-2.8 0.1-4.8 1.4-6.8 1.1-1.6 2.8-3.1 3.9-3.4 1.1-0.3 4.2 0.7 7 2.1 2.8 1.4 6.5 2.8 8.3 3.1 1.7 0.3 3.9 0.1 4.7-0.5 0.8-0.6 1.4-1.9 1.3-3-0.2-1.1-0.9-2.2-1.5-2.5-0.7-0.3-1.3-0.9-1.3-1.5 0-0.6 0.5-0.8 1-0.5 0.5 0.3 1 0.3 1 0 0-0.3-1.4-1.7-3.2-3.2-1.7-1.6-4.7-4.4-6.6-6.3-1.9-1.9-4.7-6.2-6.3-9.5-1.8-3.7-2.9-7.6-2.9-10.2 0-2.4 0.5-5.3 1.1-6.5 0.6-1.3 2.1-3.3 3.3-4.6 1.1-1.2 3.1-2.2 4.4-2.2 1.2 0 3.4 0.6 5 1.4 1.5 0.8 4.1 2.9 5.9 4.8 1.7 1.8 4.5 5.6 6.2 8.3 2.4 3.8 3.9 5.1 5.9 5.2 1.5 0.2 3 0.8 3.3 1.5 0.5 0.9 0.8 0.8 1.3-0.4 0.3-1 0.6-3.4 0.6-5.3 0-2-0.4-3.3-1-3-0.5 0.3-2.2-1.1-3.8-3.1-1.5-1.9-3-4.8-3.3-6.2-0.4-1.5-1-3.6-1.5-4.6-0.7-1.4 0.6-0.9 5.3 2 3.5 2.1 6.3 4.6 6.4 5.4q0.1 1.5 0.5 0.3c0.3-0.9 2-0.4 5.6 1.7 2.9 1.7 8.8 4.9 13 7 4.3 2.2 7.8 4.6 7.8 5.3q0 1.2 1-0.3c0.5-0.8 1-3.1 1-5 0-2.9-0.5-3.8-3.2-5.5-1.8-1.1-3.9-1.9-4.5-1.7-0.7 0.1-5.5-1.8-10.6-4.2-5-2.5-11.2-5.2-13.7-6-2.5-0.9-5.3-1.6-6.3-1.6-1.3 0-1.6-0.8-1.5-3.7 0.3-3.6 0.5-3.8 3.3-3.5 1.7 0.2 4.7 0.7 6.7 1.3 2.1 0.5 4.5 1.6 5.3 2.4 0.8 0.8 1.7 1.3 2 1 0.3-0.3 1.1 0 1.7 0.5 0.7 0.6 4.1 2.9 7.5 5 3.5 2.2 6.3 4.4 6.3 5 0 0.6 0.3 0.8 0.7 0.5 0.5-0.2 1.7 0.4 2.8 1.6 1.1 1.1 2.3 2 2.7 1.9 0.5 0 0.6-4.4 0.3-9.7-0.2-5.4-0.4-11.8-0.2-14.3 0.1-2.5 0.2-9.4 0.2-15.5-0.1-6.1-0.2-12.1-0.3-13.5-0.1-1.4 0-4.4 0.3-6.7 0.3-2.5 0.1-4.3-0.5-4.3q-1 0 0-2.5c0.6-1.6 0.7-8.3 0.2-18.4-0.7-15.1-0.6-16 3.3-20.2l160.5 0.1c124.6 0 161.4-0.3 164.3-1.3 2.4-0.7 5-2.7 7-5.2 1.7-2.2 3.5-4.1 3.9-4.2 0.4-0.2 0.8-0.7 0.8-1.3 0-0.6 0.6-1.6 1.2-2.4 0.7-0.8 2-2.2 2.8-3.2 0.8-1.1 2.6-3.5 4-5.4 1.3-1.9 3.5-4.6 4.9-6 1.4-1.4 4.2-4.6 6.1-7 1.9-2.5 3.8-4.6 4.2-4.7 0.5-0.2 0.8-1 0.8-1.8 0-0.8 1.1-2.4 2.5-3.5 1.4-1.1 2.5-2.7 2.5-3.5 0-0.8 0.7-1.7 1.5-2 0.8-0.3 1.5-1.2 1.5-2 0-0.8 1.3-3.4 2.9-5.7 1.6-2.4 4-5.4 5.3-6.8 1.4-1.4 4.4-5.2 6.9-8.5 2.4-3.3 5-7.1 5.6-8.5 0.7-1.4 2.3-4.1 3.4-6 1.2-1.9 3.3-5.5 4.6-8 1.3-2.5 3.2-5.4 4.2-6.5 1-1.1 3.1-4.5 4.7-7.5 1.6-3 3.9-6.7 5.1-8.2 1.3-1.6 2.3-3.4 2.3-4 0-0.7 1.3-2.5 3-4 1.6-1.6 3-3.4 3-4 0-0.7 1.1-3 2.5-5 1.4-2.1 2.5-4.7 2.5-5.8 0-1.1 0.2-2.7 0.5-3.5 0.3-0.8 1.2-1.5 2-1.5 0.8 0 1.5-0.8 1.5-1.7-0.1-1 0.8-3 2-4.5 1.1-1.6 2-3.5 2-4.3 0-0.8 0.7-1.7 1.5-2 0.8-0.3 1.5-1.2 1.5-2 0-0.8 0.5-1.5 1-1.5 0.5 0 1-0.6 1-1.2 0-0.7 1.2-2.7 2.7-4.3 1.6-1.7 3.4-4.6 4.2-6.5 0.8-1.9 1.7-3.7 2-4 0.3-0.3 1.6-2 2.8-3.7 1.3-1.8 2.3-3.9 2.3-4.5 0-0.7 1.1-3 2.5-5 1.4-2.1 2.5-4.4 2.5-5-0.1-0.7 0.5-1.8 1.2-2.4 0.7-0.7 2.4-3.5 3.8-6.3 1.4-2.8 2.8-5.1 3.2-5.1 0.5 0 1.7-1.8 2.8-4zm-1501.5 251c0.3 0 1.9 0.7 3.7 1.6 1.8 0.9 6 3.8 9.3 6.4 3.3 2.6 8.2 7.1 10.9 10.1 2.7 3 5.4 6.4 6 7.6 0.8 1.7 0.8 2.4-0.4 3.5-0.8 0.8-2.4 1.9-3.5 2.5-1.1 0.6-4.2 1.8-6.8 2.7-3.8 1.3-5.4 1.4-8.5 0.5-2-0.6-5.1-1.9-6.7-2.8-1.7-0.8-3.9-2.5-5-3.6-1-1.1-2.9-4.2-4.1-7-1.2-2.7-2.1-5.9-2-7 0.1-1.1 0.9-3.2 1.8-4.7 1-1.6 1.8-3.2 1.8-3.8 0-0.6 0.7-1.2 1.5-1.5 0.8-0.3 1.3-0.9 1-1.5-0.3-0.6-0.3-1.4 0-2 0.3-0.6 0.8-1 1-1zm-198 320.7c0.5 0.7 1.3 1.1 1.7 0.8 0.4-0.3 2.2 1.1 4 3 1.8 1.9 3.7 3.4 4.3 3.5 0.5 0 5.6 4.7 11.2 10.5 5.7 5.8 10.3 11 10.3 11.5 0 0.5 0.7 1.3 1.6 1.8 0.9 0.4 2.6 2.4 3.8 4.4 1.1 2.1 2.3 3.6 2.6 3.3 0.3-0.2 1.8 1.7 3.4 4.3 1.7 2.6 3.5 5 4 5.3 0.6 0.4 2.4 3.1 4 6 1.5 3 3.2 5.6 3.6 5.9 0.5 0.3 1.8 2.5 2.9 5 1.1 2.5 2.9 5.9 3.8 7.6 1 1.7 2.7 5.1 3.8 7.7 1.1 2.5 2.3 4.4 2.7 4.2 0.4-0.3 0.8 0.3 0.7 1.3 0 0.9 0.7 2.4 1.6 3.2 0.9 0.8 2 3.3 2.6 5.5 0.5 2.2 1.6 5.4 2.5 7 0.8 1.6 1.4 3.5 1.3 4-0.1 0.5 0 1.7 0.3 2.5 0.3 0.8 1.3 3.5 2.2 6 0.8 2.5 1.6 5.5 1.6 6.8 0 1.2 0.4 2.4 1 2.7 0.5 0.3 1 1.4 1 2.5 0 2-0.7 2-204 2v-74h4c2.9 0 4 0.4 4 1.5 0 1.1 1.1 1.5 4 1.5 2.2 0 4-0.5 4-1 0-0.5 0.9-1 2-1 1.5 0 2 0.7 2 2.5 0 1.8 0.5 2.5 2 2.5 1.1 0 2.1-0.5 2.2-1.1 0.2-0.7 2.8-0.9 8-0.5 4.3 0.3 7.8 0.9 7.8 1.4 0 0.4-2.3 0.5-5 0.2-4.3-0.4-5-0.3-5 1.3 0 1.4 0.9 1.7 5 1.7 3.8 0 5 0.4 5 1.5 0 1.2 1.5 1.5 16 1.5v-6h9c7.3 0 9-0.3 9-1.5 0-0.8 0.9-1.5 2-1.5 1.5 0 2-0.7 2-2.5 0-2.3 0.2-2.5 4.2-2 2.4 0.2 3.5 0.2 2.5 0-0.9-0.3-1.7-1.4-1.7-2.5 0-1.5 0.8-2.1 3.2-2.3q3.3-0.4 5 1.5c1.7 1.7 1.8 1.7 1.8-0.7 0-1.8 0.4-2.4 1.5-2 0.9 0.3 1.5-0.1 1.5-1 0-0.8-0.4-1.6-0.9-1.7-0.5-0.2-1.1-1.3-1.5-2.5-0.4-1.7-0.2-2.3 0.9-2.3 0.8 0 1.5-0.7 1.5-1.5 0-0.8 0.7-1.5 1.5-1.5 1.1 0 1.5-1.1 1.5-4 0-2.9 0.4-4 1.5-4 0.8 0 1.6 0.4 1.7 1 0.2 0.6 1.4 0.6 3.3 0.1 2.5-0.8 2.6-0.9 0.7-1-1.2-0.1-2.2-0.6-2.2-1.1 0-0.5 0.7-1.7 1.5-2.5 0.8-0.8 1.7-1.2 2-0.7 0.3 0.4 0.5-0.2 0.5-1.3 0-1.6 0.2-1.8 1.2-0.7 0.7 0.7 1.6 1.2 2 1.2 0.4 0 0.8-0.7 0.8-1.5 0-0.8-0.7-1.5-1.5-1.5-0.8 0-1.5-0.7-1.5-1.5 0-0.8 0.8-1.5 1.7-1.5 1.5 0.1 1.6-0.2 0.5-1.5-0.7-0.8-1.1-2.1-0.9-2.7 0.2-0.7 0-2.1-0.5-3-0.7-1.6-0.4-1.7 2.4-1.2 2.8 0.4 3.3 0.2 3.5-1.5 0.2-1.4-0.4-2.3-1.7-2.6-1.1-0.3-2-1-2-1.5 0-0.5 1.2-1 2.7-1 2.4 0.1 2.6-0.1 1.5-1.5-1-1.3-0.8-1.5 1.5-1.8 1.5-0.1 3.2 0.3 3.8 1zm562 17.8c4.5 0.3 11 1.6 15 2.9 3.8 1.3 7.7 2.2 8.5 2 0.8-0.3 3.3 1.2 5.5 3.3 2.2 2.1 7.3 6.4 11.2 9.6 4 3.1 7.1 6.2 6.8 6.7-0.3 0.5 0.2 1.6 1.1 2.3 0.9 0.6 3.2 4.6 5.1 8.7 1.9 4.1 4.2 10.2 5.1 13.5 1.1 4.1 1.6 9.7 1.6 17.5-0.1 6.3-0.6 12.6-1.2 14-1.1 2.4-1.1 2.4-1.2 0.3 0-1.7-0.6-2.3-2.3-2.4-1.2 0-4.2 0-6.7 0.1-2.5 0.1-8.1-0.4-12.4-1.2-4.3-0.7-8-1.6-8.2-2-0.2-0.5-1.3-0.8-2.4-0.8-1.1 0-5.1-1.6-8.8-3.6-3.7-2-8.1-4.7-9.7-6-1.7-1.4-3.5-2.8-4-3.3-0.6-0.4-2.9-3-5.2-5.7-2.4-2.7-5.2-6.7-6.4-8.9-1.1-2.2-2.9-6.5-3.9-9.5-1-3-2.1-8.4-2.6-12-0.4-4.1-0.2-9.7 0.7-15.2 1.2-7.8 1.6-8.8 3.8-9.8 1.5-0.5 6.1-0.8 10.6-0.5z"/>
		<path id="Path 1" class="s1" d="m-246 0h246v232l11.8-0.1c6.6 0 15.6 0.7 20.7 1.6 4.9 0.9 13.3 3 18.5 4.8 5.2 1.7 13.3 5.4 18 8 4.7 2.7 8.9 5.4 9.5 5.9 0.7 0.8 0.4 0.9-1 0.3-1.1-0.4-2.7-0.8-3.5-0.9-0.8 0-1.5 0.6-1.5 1.4 0 0.8-0.6 1.8-1.3 2.3-0.6 0.4-1.2 1.1-1.2 1.7 0 0.6-0.8 2.2-1.7 3.8-1 1.5-1.8 3.6-1.9 4.7-0.1 1.1 0.8 4.3 2 7 1.2 2.8 3.1 5.9 4.2 7 1 1.1 3.3 2.8 4.9 3.6 1.6 0.9 4.7 2.2 6.7 2.8 3.1 0.9 4.7 0.8 8.5-0.5 2.7-0.9 5.7-2.1 6.8-2.7 1.1-0.6 2.6-1.6 3.2-2.4 0.7-0.7 1.1-2.2 0.8-3.3-0.3-1.1-0.3-2 0-2 0.3 0 3.4 4.4 6.9 9.8 3.6 5.3 8.1 13.3 10.1 17.7 2 4.4 4.7 12.3 6.1 17.5 1.3 5.2 2.9 13.3 3.5 18 0.7 4.9 0.9 12.8 0.5 18.8-0.3 5.6-1.5 14.1-2.5 18.9-1 4.9-2.9 11.7-4.1 15.3-1.2 3.6-3.7 9.6-5.7 13.5-1.9 3.9-5.5 9.9-7.9 13.5-2.3 3.6-7.8 10.3-12.1 14.9-4.3 4.6-11.4 11-15.8 14.2-4.4 3.2-8.6 6.3-9.3 6.9-0.6 0.5-1.6 1-2.2 1-0.6 0-1 0.6-1 1.3 0 0.6-0.3 0.9-0.7 0.5-0.4-0.4-2 0.1-3.5 1.2-1.6 1.1-2.8 1.8-2.8 1.5 0-0.3-3.5 1-7.7 2.8-4.3 1.9-10.9 4.1-14.8 5-3.9 0.9-9.9 2.1-13.5 2.7-3.6 0.5-11.1 1-27 1v5.3c-0.1 4.4 0.3 5.4 4.5 7.6h-2.2c-1.4 0.1-2.3 0.7-2.3 1.6 0 0.8 0.4 1.5 1 1.5 0.6 0 1.1-0.4 1.3-0.9 0.1-0.4 1.1-0.5 2.2-0.1 1.9 0.7 1.9 0.8-0.5 1.8-2.4 0.9-2.3 1 6.5 3.6l-3 0.8c-1.7 0.5-3.9 0.6-5 0.4-1.3-0.3-2 0-2 0.9 0 0.8 0.8 1.5 1.8 1.5 0.9 0 1.7 0.4 1.7 1 0 0.6-0.9 0.8-2 0.5-2-0.5-2 0-2 203.5h-21c-20.3 0-21-0.1-21-2 0-1.1-0.4-2.2-1-2.5-0.6-0.3-1-1.5-1-2.7 0-1.3-0.7-4.3-1.6-6.8-0.9-2.5-1.9-5.2-2.2-6-0.3-0.8-0.4-2-0.3-2.5 0.1-0.5-0.5-2.4-1.3-4-0.9-1.6-2-4.8-2.5-7-0.5-2.2-1.7-4.7-2.6-5.5-0.9-0.8-1.6-2.3-1.5-3.2 0-1-0.3-1.6-0.7-1.3-0.5 0.2-1.7-1.7-2.8-4.2-1.1-2.6-2.8-6-3.8-7.7-0.9-1.7-2.7-5.1-3.8-7.6-1.1-2.5-2.4-4.7-2.8-5-0.5-0.3-2.1-2.9-3.7-5.9-1.6-2.9-3.4-5.6-3.9-6-0.6-0.3-2.4-2.7-4-5.3-1.7-2.6-3.2-4.5-3.5-4.3-0.3 0.3-1.5-1.3-2.7-3.5-1.3-2.2-2.7-4-3.3-4-0.6 0-1.3-0.8-1.7-1.7-0.4-1-5.2-6.4-10.7-12.1-5.6-5.6-10.5-10.2-11.1-10.2-0.6-0.1-2.5-1.6-4.3-3.5-1.7-1.9-3.7-3.3-4.2-3-0.5 0.3-1.2-0.1-1.4-0.8-0.2-0.7-1.5-1-3.4-0.7-2.5 0.4-2.9 0.8-1.9 1.8 1 1 0.7 1.3-1.6 1.2-1.5 0-2.7 0.5-2.7 1 0 0.5 0.9 1.2 2 1.5 1.3 0.3 1.9 1.2 1.8 2.6-0.3 1.7-0.8 1.9-3.6 1.5-2.8-0.5-3.1-0.4-2.3 1.1 0.4 1 0.7 2.4 0.5 3-0.2 0.7 0.2 2 0.8 2.8 1.1 1.3 1 1.6-0.5 1.5-0.9 0-1.7 0.7-1.7 1.5 0 0.8 0.7 1.5 1.5 1.5 0.8 0 1.5 0.7 1.5 1.5 0 0.8-0.3 1.5-0.8 1.5-0.4 0-1.3-0.5-2-1.2-1-1.1-1.2-0.9-1.2 0.7 0 1.1-0.2 1.7-0.5 1.2-0.3-0.4-1.2 0-2 0.8-0.8 0.8-1.5 2-1.5 2.5 0 0.5 1 1 2.2 1.1 1.9 0.1 1.8 0.2-0.7 1-1.9 0.5-3.1 0.5-3.3-0.1-0.1-0.6-0.9-1-1.7-1-1.1 0-1.5 1.1-1.5 4 0 2.9-0.4 4-1.5 4-0.8 0-1.5 0.7-1.5 1.5 0 0.8-0.7 1.5-1.5 1.5-1.1 0-1.3 0.6-0.9 2.2 0.4 1.3 1.1 2.4 1.5 2.5 0.5 0.2 0.9 1 0.9 1.8 0 0.9-0.6 1.3-1.5 1-1.1-0.4-1.5 0.2-1.5 2 0 2.4-0.1 2.4-1.8 0.7q-1.7-1.9-5-1.5c-2.4 0.2-3.2 0.8-3.2 2.3 0 1.1 0.8 2.2 1.7 2.5 1 0.2-0.1 0.2-2.5 0-3.9-0.5-4.2-0.3-4.2 2 0 1.8-0.5 2.5-2 2.5-1.1 0-2 0.7-2 1.5 0 1.2-1.7 1.5-18 1.5v6h-8c-6.4 0-8-0.3-8-1.5 0-1.1-1.2-1.5-5-1.5-4.1 0-5-0.3-5-1.8 0-1.5 0.7-1.6 5-1.2 2.7 0.3 5 0.2 5-0.3 0-0.4-3.5-1-7.8-1.3-5.2-0.4-7.8-0.2-8 0.5-0.1 0.6-1.1 1.1-2.2 1.1-1.5 0-2-0.7-2-2.5 0-1.8-0.5-2.5-2-2.5-1.1 0-2 0.5-2 1 0 0.5-1.8 1-4 1-2.9 0-4-0.4-4-1.5 0-1.1-1.1-1.5-8-1.5v-313zm1209 0h612l-2 4c-1.1 2.2-2.3 4-2.8 4-0.4 0-1.8 2.3-3.2 5.1-1.4 2.8-3.1 5.6-3.8 6.3-0.7 0.6-1.3 1.7-1.2 2.3 0 0.7-1.1 3-2.5 5-1.4 2.1-2.5 4.4-2.5 5 0 0.7-1 2.8-2.3 4.5-1.2 1.8-2.5 3.5-2.8 3.8-0.3 0.3-1.2 2.1-2 4-0.8 1.9-2.6 4.8-4.2 6.5-1.5 1.6-2.7 3.6-2.7 4.3 0 0.6-0.5 1.2-1 1.2-0.5 0-1 0.7-1 1.5 0 0.8-0.7 1.7-1.5 2-0.8 0.3-1.5 1.2-1.5 2 0 0.8-0.9 2.7-2 4.3-1.2 1.5-2.1 3.5-2 4.5 0 0.9-0.7 1.7-1.5 1.7-0.8 0-1.7 0.7-2 1.5-0.3 0.8-0.5 2.4-0.5 3.5 0 1.1-1.1 3.7-2.5 5.8-1.4 2-2.5 4.3-2.5 5 0 0.6-1.4 2.4-3 4-1.7 1.5-3 3.3-3 4 0 0.6-1 2.4-2.3 4-1.2 1.5-3.5 5.2-5.1 8.2-1.6 3-3.7 6.4-4.7 7.5-1 1.1-2.9 4-4.2 6.5-1.3 2.5-3.4 6.1-4.6 8-1.1 1.9-2.7 4.6-3.4 6-0.6 1.4-3.2 5.2-5.6 8.5-2.5 3.3-5.5 7.1-6.9 8.5-1.3 1.4-3.7 4.4-5.3 6.8-1.6 2.3-2.9 4.9-2.9 5.7 0 0.8-0.7 1.7-1.5 2-0.8 0.3-1.5 1.2-1.5 2 0 0.8-1.1 2.4-2.5 3.5-1.4 1.1-2.5 2.7-2.5 3.5 0 0.8-0.3 1.6-0.8 1.8-0.4 0.1-2.3 2.2-4.2 4.7-1.9 2.4-4.7 5.6-6.1 7-1.4 1.4-3.6 4.1-4.9 6-1.4 1.9-2.9 4-3.5 4.6-0.5 0.7-1.8 2.1-2.8 3.3-0.9 1.1-1.7 2.5-1.7 3.1 0 0.6-0.4 1.1-0.8 1.3-0.4 0.1-2.2 2-3.9 4.2-2 2.5-4.6 4.5-7 5.2-2.9 1-39.7 1.3-324.8 1.2l-2 2.2c-1.9 2-2 2.9-1.2 18 0.4 10.1 0.3 16.8-0.3 18.4q-1 2.5 0 2.5c0.6 0 0.8 1.8 0.5 4.3-0.3 2.3-0.4 5.3-0.3 6.7 0.1 1.4 0.2 7.4 0.3 13.5 0 6.1-0.1 13-0.2 15.5-0.2 2.5 0 8.9 0.2 14.3 0.3 5.3 0.2 9.7-0.2 9.7-0.5 0.1-1.7-0.8-2.8-1.9-1.1-1.2-2.3-1.8-2.7-1.6-0.5 0.3-0.8 0.1-0.8-0.5 0-0.6-2.8-2.8-6.2-5-3.5-2.1-6.9-4.4-7.5-5-0.7-0.5-1.5-0.8-1.8-0.5-0.3 0.3-1.2-0.2-2-1-0.8-0.8-3.2-1.9-5.2-2.4-2.1-0.6-5.1-1.1-6.8-1.3-2.8-0.3-3-0.1-3.2 3.5-0.2 2.9 0.1 3.7 1.5 3.7 0.9 0 3.7 0.7 6.2 1.6 2.5 0.8 8.7 3.5 13.8 6 5 2.4 9.8 4.3 10.5 4.2 0.6-0.2 2.7 0.6 4.5 1.7 2.7 1.7 3.2 2.6 3.2 5.5 0 1.9-0.5 4.2-1 5q-1 1.5-1 0.3c0-0.7-3.5-3.1-7.7-5.3-4.3-2.1-10.2-5.3-13-7-3.7-2.1-5.4-2.6-5.7-1.7q-0.4 1.2-0.5-0.3c-0.1-0.8-2.9-3.3-6.4-5.4-4.7-2.9-6-3.4-5.3-2 0.5 1 1.1 3.1 1.5 4.6 0.3 1.4 1.8 4.3 3.4 6.2 1.5 2 3.2 3.4 3.7 3.1 0.6-0.3 1 1 1 3 0 1.9-0.3 4.3-0.6 5.3-0.5 1.2-0.8 1.3-1.3 0.4-0.3-0.7-1.8-1.3-3.3-1.5-2-0.1-3.5-1.4-5.9-5.2-1.7-2.7-4.5-6.5-6.2-8.3-1.8-1.9-4.4-4-5.9-4.8-1.6-0.8-3.8-1.4-5-1.4-1.3 0-3.3 1-4.4 2.2-1.2 1.3-2.7 3.3-3.3 4.6-0.6 1.2-1.1 4.1-1.1 6.5 0 2.6 1.1 6.5 2.9 10.2 1.6 3.3 4.4 7.6 6.3 9.5 1.9 1.9 4.9 4.7 6.6 6.3 1.8 1.5 3.2 2.9 3.2 3.2 0 0.3-0.5 0.3-1 0-0.5-0.3-1-0.1-1 0.5 0 0.6 0.6 1.2 1.3 1.5 0.6 0.3 1.3 1.4 1.5 2.5 0.1 1.1-0.5 2.4-1.3 3-0.8 0.6-3 0.8-4.7 0.5-1.8-0.3-5.5-1.7-8.3-3.1-2.8-1.4-5.9-2.4-7-2.1-1.1 0.3-2.8 1.8-3.9 3.4-1.3 2-1.7 4-1.4 6.8 0.2 2.4 1.6 5.6 3.5 8 1.6 2.2 5 5 7.4 6.2 2.4 1.3 6.4 2.8 8.9 3.4 2.5 0.7 3.9 1.3 3.3 1.5-1 0.3-0.9 1.2 0.3 3.7 0.9 1.7 2 3.4 2.3 3.7 0.3 0.3 1.4 1.4 2.3 2.5 1.6 1.9 1.5 2-2 2.1-2 0.1-6.9 0.7-10.7 1.3-3.8 0.7-7.9 1.4-9 1.6-1.1 0.2-3.8 0.9-6 1.4-2.2 0.6-8.8 1.1-14.7 1.1-6 0-12 0.5-13.5 1.1-1.6 0.6-9.8 1.9-18.3 2.9-8.5 1-16.3 2.1-17.2 2.4-1.7 0.6-1.8-2.7-1.9-60.1 0-33.5-0.2-60.2-0.5-59.5-0.3 0.8-2.8 1.1-16.9 0.8l14.5-0.6v-3c0-1.6 0.5-3 1-3 0.5 0 1.2 0.6 1.4 1.3 0.3 0.6 0.5-8.1 0.5-19.5 0.1-13.6-0.2-20.6-0.9-20.3-0.5 0.3-1.2 0.1-1.5-0.5-0.3-0.6 0.2-1 1-1 1.3 0 1.5-14.5 1.5-124.5zm-540 590.1c1.9 0 3 0.3 2.4 0.7-0.6 0.4-1.7 4.5-2.4 9.2-0.7 4.7-1 11.2-0.7 14.5 0.4 3.3 1.5 8.7 2.6 12 1.1 3.3 2.9 7.8 4.1 10 1.1 2.2 4 6.2 6.3 8.9 2.3 2.7 4.7 5.3 5.2 5.7 0.5 0.5 2.4 1.9 4 3.3 1.6 1.3 6 4 9.8 6 3.7 2 7.6 3.6 8.7 3.6 1.1 0 2.2 0.3 2.4 0.7 0.2 0.5 3.9 1.4 8.2 2.1 4.4 0.8 9.9 1.3 12.4 1.2 2.5-0.1 5.6-0.1 7-0.1 2.4 0.1 2.5 0.3 1.8 4.3-0.4 2.4-2.5 7.9-4.7 12.3-2.2 4.4-5.5 9.7-10.6 15.5h-95.5l-3.5-4.3c-2-2.3-5.1-7.3-7-11.2-2-3.9-4.5-10.8-5.6-15.5-1.7-6.8-2.1-10.3-1.6-17.5 0.3-5 1.5-11.9 2.7-15.5 1.2-3.6 3.5-9 5.1-12 1.6-3 4.7-7.8 7-10.5 2.2-2.8 6.4-6.9 9.2-9.2 2.9-2.4 7.9-5.7 11.2-7.5 3.3-1.8 8.7-4 12-4.9 3.3-1 7.6-1.8 9.5-1.8zm687.7 76.9h46.3l-0.5 2.7c-0.2 1.6-1.2 8.2-2 14.8-1.3 10-2 12.3-3.8 13.8-1.9 1.5-4.2 1.8-17.5 1.7-13.1 0-15.5-0.2-17-1.8-1.3-1.2-2.2-4.5-3-10.7-0.6-5-1.5-11.6-1.8-14.8z"/>
		<path id="Path 2" class="s0" d="m1224.8 16c0.4 0 1.8 1.5 3.2 3.3 1.3 1.7 5.4 6.1 9.1 9.7 3.7 3.6 7.8 7.4 9.1 8.5 1.3 1.1 2.8 2.2 3.4 2.4 0.5 0.2 2.6 1.8 4.7 3.7 2 1.9 4 3.4 4.5 3.4 0.4 0 1.8 0.8 3.2 2 1.4 1.1 3.1 2.4 3.8 3 0.6 0.5 1.7 1 2.2 1 0.6 0 1 0.5 1 1 0 0.5 1.1 1.6 2.5 2.3 1.4 0.6 2.5 1.8 2.5 2.5 0 0.6 0.9 1.4 2 1.7 1.1 0.3 2 1.2 2 2 0 0.8 0.5 1.5 1 1.5 0.6 0 1 0.7 1 1.5 0 0.8-0.9 2-2 2.5-1.1 0.5-4.1 0.7-6.7 0.4-2.7-0.4-6-1.5-7.5-2.5-1.6-1.1-3.2-1.9-3.8-1.9-0.5 0-6.4-5.5-13.1-12.2-6.6-6.8-12.2-13.1-12.5-14-0.2-1-0.9-1.8-1.4-1.8-0.5 0-2-2.1-3.1-4.8-1.2-2.6-3-7-4-9.7-1.1-2.8-1.9-5.1-1.9-5.3 0-0.1 0.3-0.2 0.8-0.2zm-134.6 255.6c0.6 0.3 1 0.9 0.9 1.5-0.1 0.5-0.7 1.5-1.5 2.1-0.7 0.7-1.6 3.2-2 5.5-0.3 2.4-1.1 4.5-1.6 4.8-0.5 0.3-1.7-1.5-4-8.5l3.6-3c2-1.6 4.1-2.7 4.6-2.4zm7.9 6.4c1.1 0.6 2.1 1.3 2.3 1.7 0.2 0.5-0.4 3.9-1.4 7.8-1 3.9-2.1 8.8-2.5 11-0.6 3.8-0.8 3.9-2.1 2-0.8-1.1-1.4-3.9-1.4-6.3 0-2.3 0.7-7.1 1.6-10.7 1.5-5.8 1.8-6.3 3.5-5.5zm-237.8 247c0.4 0 0.7 0.5 0.7 1 0 0.5-0.8 1.3-1.7 1.7-1 0.3-2.8 1.5-4 2.5-1.3 1-3.1 1.5-4 1.2-1.1-0.3-3.4 0.6-5.5 2-2.1 1.4-4.2 2.6-4.8 2.6-0.5 0-2.4 1-4 2.2-2.1 1.6-3.4 2-4.1 1.3-0.6-0.5-0.8-1.6-0.5-2.3 0.3-0.6 1.2-1.2 1.9-1.2 0.6 0.1 1.9-0.7 2.7-1.6 0.8-0.9 2.5-2.1 3.8-2.5 1.2-0.5 3.4-1.1 5-1.4 1.5-0.3 3.9-1.5 5.5-2.5 1.5-1.1 2.6-1.6 2.6-1.1-0.1 0.6 1.2 0.3 2.7-0.5 1.6-0.7 3.2-1.4 3.7-1.4zm-172 29.7c0.5 0.2 0.9 0.8 0.8 1.4-0.1 0.5-0.5 0.9-1.1 0.9-0.5 0-3.4 1.6-6.2 3.5-4.2 2.7-5.6 3.2-6.6 2.2-1-1-0.6-1.6 2-3.2 1.8-1 4.8-2.7 6.7-3.6 1.9-0.9 3.9-1.4 4.4-1.2zm71.5 37.4c0.6-0.1 1.4 0.4 1.7 0.9 0.3 0.5-1.8 2-4.5 3.2-2.8 1.3-5.1 2.6-5 3 0 0.5-0.6 0.6-1.2 0.4-0.7-0.2-2.1 0.4-3.1 1.3-1.6 1.5-1.8 1.4-1.7-0.7 0-1.2 0.8-2.5 1.8-2.9 0.9-0.3 2.2-0.7 2.7-0.8 0.6-0.2 2.6-1.2 4.5-2.3 1.9-1.1 4.1-2.1 4.8-2.1zm5.7 8.6c2.2 0.2 4.9 0.4 6 0.4 1.1 0 4.7-0.3 8-0.7 5.1-0.6 6.8-0.3 11.5 1.8 3.6 1.6 6.7 4 9.1 6.9 1.9 2.4 4.1 6.2 4.7 8.4 0.9 3.2 0.8 5.2-0.3 10-1.1 4.1-2.7 7.4-5.3 10.4-2 2.4-5.5 5.3-7.7 6.4-2.8 1.4-5.9 2-10 2-3.3-0.1-6.7-0.3-7.5-0.5-0.8-0.2-3.1-1.4-5-2.8-1.9-1.4-3.8-2.5-4.2-2.5-0.3 0-1-0.4-1.5-0.8-0.4-0.5-0.8-1.2-0.9-1.5 0-0.4-0.9-2.5-2-4.7-1.2-2.6-1.8-6.3-1.9-10.8 0-3.8 0.3-7.1 0.8-7.3 0.4-0.2 0.5-0.9 0.2-1.4-0.3-0.5-0.2-1 0.3-1 0.4 0 1-1.3 1.5-3 0.4-1.6 1.2-2.8 1.7-2.5 0.6 0.3 1 0.2 1-0.3 0-0.4-0.3-1.1-0.7-1.5-0.4-0.5-1-1.9-1.3-3.1-0.4-2.1-0.1-2.2 3.5-1.9zm-42 7.4c0.6 0 1 0.5 0.9 1.1 0 0.7-1.8 2.3-4 3.5-2.1 1.2-4.6 2.5-5.4 2.9-0.8 0.4-2.3 1.4-3.3 2.3-0.9 0.9-1.9 1.3-2.2 0.8-0.3-0.4 0.1-1.6 0.8-2.7 0.6-1.1 3.7-3.3 6.7-4.8 3-1.6 6-3 6.5-3.1zm-16 9c0.7 0.8 0.5 1.4-0.8 2.3-1 0.6-3.5 2.5-5.5 4.3-2 1.8-4.8 3.5-6.2 3.8-1.4 0.3-2.7 0.3-3 0-0.3-0.2 0.2-1.2 1-2 0.8-0.9 2.4-1.6 3.5-1.5 1.1 0 3.8-1.8 6-4 2.8-2.9 4.2-3.7 5-2.9z"/>
		<path id="Path 3" class="s1" d="m1552.2 256c1 0 1.8 0.2 1.8 0.5 0 0.3-2.9 1.9-6.5 3.5-3.6 1.6-7.2 3-8 3-0.8 0-1.5 0.4-1.5 1 0 0.6-0.5 0.8-1 0.5-0.6-0.3-2.7 0.4-4.8 1.5-2 1.1-4.2 2-4.7 2-0.6 0-3.5 1-6.5 2.1-3 1.2-6.4 2.5-7.5 3-1.1 0.5-4.3 1.6-7 2.5-2.8 0.9-7.3 2.7-10 4-2.8 1.3-5.6 2.4-6.3 2.4-0.6 0-8.1 2.5-16.5 5.5-8.3 3.1-19.2 7.1-33 12.3l0.1-3.4c0.2-2.7 0.6-3.4 2.2-3.4q2 0 1.2-1.2c-0.5-0.9-0.1-1.1 1.3-0.5 1.2 0.4 2.5 0.2 3.3-0.5 0.7-0.7 1.3-1 1.2-0.6 0 0.5 1.7 0.1 3.7-0.8 2.1-0.9 5.1-2 6.8-2.6 1.7-0.5 3.7-1.1 4.5-1.3 0.8-0.2 5.1-1.7 9.5-3.2 4.4-1.5 8.1-3.1 8.2-3.6 0.2-0.4 1.3-0.7 2.5-0.7 1.3 0 3.6-0.6 5.3-1.5 1.7-0.8 3.7-1.5 4.5-1.5 0.8 0 4-0.9 7-1.9 4.3-1.5 5-2 3.1-2.3-1.4-0.1-2.7-1-2.9-1.8-0.4-1.2-0.2-1.3 0.9-0.3 0.8 0.6 2.4 1.2 3.6 1.4 1.2 0.1 2.8 0 3.5-0.3 0.7-0.2 3.5-1.2 6.3-2.2 2.7-0.9 6.1-1.9 7.5-2.2 1.4-0.3 3.8-1.1 5.5-1.9 1.7-0.7 4.2-1.6 5.7-1.9 1.6-0.3 2.8-1 2.8-1.6 0-0.6 0.7-0.8 1.5-0.5 0.8 0.3 2.1 0.1 2.7-0.4 0.7-0.5 2.6-1.2 4.3-1.5 1.7-0.4 3.2-0.8 3.4-1.1 0.2-0.3 1.3-0.5 2.3-0.5zm-477 81c0.5 0 2.3 0.9 4 1.9 1.8 1.1 5.1 2.3 7.3 2.7 2.2 0.4 5.7 1.5 7.7 2.5 2.1 1.1 4 1.9 4.3 1.9 0.3 0 0.5-0.9 0.5-2 0-1.1 0.5-2.2 1-2.5 0.5-0.3 1.2-0.4 1.5-0.3 0.3 0.2 0.7 2.3 1 4.8 0.3 2.5 0.2 8.6-0.2 13.5-0.3 4.9-0.8 8.2-1 7.3-0.2-1.1-1.5-2-3.3-2.3-1.7-0.3-3.2-1.1-3.4-1.8-0.2-0.6 0.1-3.1 0.7-5.4 0.7-2.4 1-4.4 0.7-4.6-0.3-0.2-3.7-2.4-7.5-5-3.8-2.6-8.6-6-10.5-7.7-1.9-1.6-3.2-3-2.8-3zm356.7 40.7c0.3 0.3 5.6 9.8 11.8 21.1 6.1 11.4 11.7 21 12.5 21.3 0.7 0.3 3.1 1.4 5.3 2.5 2.8 1.3 4.7 3.2 6.3 6.4 1.9 3.7 2.2 5.5 1.8 9.7-0.3 2.9-0.9 7.7-1.2 10.5-0.4 3.2-0.2 6.2 0.5 7.5 0.7 1.6 2.8 2.8 6.3 3.8 2.9 0.7 7.8 3.1 10.8 5.2 3 2.1 6.5 5.4 7.7 7.3 1.3 1.9 2.4 4.6 2.3 6 0 1.4-0.5 3.1-1.2 3.7-0.7 0.7-3.4 1.3-6 1.3-4 0-5 0.4-5.9 2.2-0.8 1.7-0.8 4.4 0 10 0.8 5.7 0.8 9.4 0 13.5-0.6 3.2-1.7 6.9-2.4 8.3-0.7 1.4-2.6 3.7-7.5 8l1.6 7.2c0.8 4 2 7.5 2.5 7.8 0.6 0.3 2.3 13.3 3.9 29 1.6 15.7 3 29.5 3 30.7 0 2.2-0.7 2.4-11.8 3.9-6.4 0.8-14.3 1.8-23.2 2.9v-15c0-8.3-0.4-15.5-0.8-16.2-0.4-0.6-1.7 6.8-3 16.5-1.2 9.7-2.3 17.8-2.5 18-0.1 0.1-6.4-0.5-14-1.5-7.7-1-14.3-2-14.9-2.3-0.6-0.3-0.4-7 0.7-18.5 0.9-9.9 2.3-22.8 3.1-28.8 0.8-5.9 1.2-11.2 0.9-11.7-0.3-0.5-0.5-6.5-0.5-13.3 0-6.7 0.6-17.2 1.5-23.2 0.8-6.1 2.4-15.3 3.5-20.5 1-5.2 1.6-9.9 1.3-10.5-0.4-0.6-6.1-8.2-12.6-17-6.6-8.8-12.1-16.1-12.1-16.3-0.1-0.1-3 0.7-6.6 1.8-3.6 1.2-8.5 3.3-11 4.8-2.5 1.5-6.3 3.5-8.5 4.5-2.2 1-7.6 2.7-12 3.8-4.4 1-8.7 1.9-9.5 1.9-0.8-0.1-0.2-0.7 1.5-1.4 1.7-0.6 5.2-2.9 8-4.9 3.4-2.6 8.5-4.8 16-7.2 6-1.9 12.9-3.9 15.2-4.5 2.4-0.5 4.3-1.3 4.3-1.8 0.1-0.4-0.7-1.5-1.7-2.4-1.2-1.2-5.2-2.3-22.3-4.8l-3.3 2.4c-1.7 1.3-6 3.8-9.5 5.5-3.4 1.7-12.8 5.4-21 8.1-8.1 2.8-15.1 4.9-15.6 4.8-0.5-0.2 1.1-1.6 3.5-3.2 2.4-1.6 11.6-6.7 36.4-19.6h27l-1.5-50 3.7-0.6c2.1-0.3 4.5-0.6 5.3-0.7 1.2-0.2 1.8 3.8 5.5 46.3l3.5 3.5c3.2 3.2 4.5 3.7 15.3 5.8 8.7 1.6 11.7 2.6 11.7 3.7 0 1.3-1.3 1.4-17.5-0.1l9 9.1c6 6 9.7 9 11.2 9 1.4 0 2.3 0.6 2.3 1.5 0 0.8 0.5 1.5 1 1.5 0.5 0 2.6-0.7 4.5-1.5 2.1-0.9 3.7-2.4 4.1-3.7 0.4-1.6-0.1-2.9-1.6-4.3-1.2-1.2-2.3-3.8-2.6-6.5-0.5-4-0.3-4.6 1.8-5.5 1.3-0.6 2.4-2 2.5-3.2 0.3-1.9-0.2-2.3-2.2-2.3-1.6 0-2.5-0.6-2.5-1.5 0-0.8-0.8-1.5-1.8-1.5-0.9 0-2.4-0.6-3.3-1.3-0.9-0.7-2.1-2.2-2.7-3.4-1-1.9-0.9-2.6 0.8-4.3 1.1-1.1 2.7-2 3.5-2 0.8 0 1.5-0.4 1.5-1 0-0.6-3.4-8.3-7.5-17.3-5.3-11.6-7.5-17.5-7.7-20.8-0.2-4 0.1-4.7 2.2-5.6 1.3-0.6 2.6-0.8 2.9-0.6zm-356.4 11.3c1.1 0 3.7 0.6 5.7 1.5 2.3 0.9 4 2.4 4.4 3.8 0.4 1.2 0.3 2.9-0.2 3.7-0.7 1.1-1 0.8-2.2-4.5l-0.2 5.5-3.8-2.5c-2-1.4-4.7-3.3-6-4.3-1.7-1.3-2-1.9-1-2.4 0.7-0.4 2.2-0.8 3.3-0.8zm39.9 46.2c2.8 0.3 3.1 0.6 2.9 3.3-0.1 1.6-0.7 11.8-1.4 22.5-0.6 10.7-1.4 19.8-1.7 20.3-0.4 0.4-1.5 0.1-2.6-0.5-1.7-1.2-1.9-2.8-1.8-22.8 0.1-11.8 0.4-21.8 0.8-22.3 0.3-0.4 2-0.7 3.8-0.5zm184.1-0.2c2.5 0 1.6 0.8-5.5 4.5-4.7 2.5-8.6 4.3-8.8 4-0.1-0.3 1.5-1.8 3.5-3.3 2.1-1.6 4.7-3.4 5.8-4 1.1-0.6 3.3-1.1 5-1.2zm31.8 0l10.6 0.1c8.9 0.1 10 0.3 7.1 1.1-1.9 0.6-6.4 1.9-10 3-3.6 1.2-8.3 3-10.5 4.1-2.2 1.1-5.6 3.3-7.5 4.8-1.9 1.6-6.2 3.9-9.5 5.3-3.3 1.3-9.8 3.1-14.5 4-4.7 1-8.7 1.5-9 1.2-0.3-0.2 1.3-1 3.5-1.7 2.2-0.6 6-2.2 8.5-3.4 2.5-1.3 6.5-3.9 9-6 2.5-2 8.5-5.7 13.4-8.1zm-196.5 216c20.9 0 27.3 0.3 27.5 1.3 0.2 0.6-0.1 3.5-0.6 6.2-0.5 2.8-1.5 5.6-2.1 6.3-0.8 1-6.9 1.3-51.1 1.3l-1.2-2.6c-0.7-1.4-1.6-4.3-2-6.6-0.6-3.1-0.4-4.2 0.7-4.9 0.8-0.5 13.8-1 28.8-1zm279.2 11v2.8c0 1.5-0.7 3.7-1.5 5-0.8 1.2-2 5.9-2.6 10.5-0.6 4.5-1.6 8.8-2.3 9.5-0.7 0.9-4.1 1.3-10.6 1.3-6.5 0-9.9-0.4-10.6-1.3-0.7-0.7-1.5-4.4-1.9-8.3-0.4-3.8-1.6-8.9-2.6-11.2-1-2.4-1.9-5.2-1.9-6.3 0-1.9 0.7-2 34-2zm16.1 28.1c3.5 0 8.4 0.4 10.9 0.7 3.2 0.5 4.6 1.2 4.7 2.5 0.3 1.4-0.5 1.7-4.9 1.6-2.9 0-7.7-0.6-10.7-1.2-3-0.7-5.6-1.8-5.9-2.4-0.3-1 1.3-1.3 5.9-1.2zm49.2 0c0.9 0 2.6 0.4 3.7 0.9 1.1 0.6 2 1.3 2 1.8 0 0.4-4.3 1-9.5 1.5-5.2 0.4-10.1 0.4-10.7 0.1q-1.3-0.6-0.3-1.6c0.6-0.5 3.7-1.3 7-1.7 3.3-0.5 6.8-0.9 7.8-1z"/>
	</g>
</svg>